TRABAJO Nº3 - GRUPO 4
…
## Warning: NAs introduced by coercion

epa_http$bytes <-  epa_http$bytes <- ifelse(is.na(epa_http$bytes), 0, epa_http$bytes)
epa_http$origen <- str_trim(epa_http$origen)
epa_http

## # A tibble: 47,748 × 7
##    origen     dataTimeStamp       metodoHttp uri   protocolo respuestaHttp bytes
##    <chr>      <dttm>              <chr>      <chr> <chr>             <dbl> <dbl>
##  1 141.243.1… 2023-11-29 23:53:25 GET        /Sof… HTTP/1.0            200  1497
##  2 query2.ly… 2023-11-29 23:53:36 GET        /Con… HTTP/1.0            200  1325
##  3 tanuki.tw… 2023-11-29 23:53:53 GET        /New… HTTP/1.0            200  1014
##  4 wpbfl2-45… 2023-11-29 23:54:15 GET        /     HTTP/1.0            200  4889
##  5 wpbfl2-45… 2023-11-29 23:54:16 GET        /ico… HTTP/1.0            200  2624
##  6 wpbfl2-45… 2023-11-29 23:54:18 GET        /log… HTTP/1.0            200   935
##  7 140.112.6… 2023-11-29 23:54:19 GET        /log… HTTP/1.0            200  2788
##  8 wpbfl2-45… 2023-11-29 23:54:19 GET        /log… HTTP/1.0            200   124
##  9 wpbfl2-45… 2023-11-29 23:54:19 GET        /ico… HTTP/1.0            200   156
## 10 wpbfl2-45… 2023-11-29 23:54:19 GET        /log… HTTP/1.0            200  2788
## # ℹ 47,738 more rows
…
p1_df <- epa_http %>% group_by(origen,exitoso) %>% summarise(peticiones  = n()) 

## `summarise()` has grouped output by 'origen'. You can override using the
## `.groups` argument.

p1_df

## # A tibble: 2,512 × 3
## # Groups:   origen [2,333]
##    origen                      exitoso peticiones
##    <chr>                       <lgl>        <int>
##  1 108.145.internal.radian.com TRUE             1
##  2 128.104.66.114              TRUE             1
##  3 128.120.5.70                TRUE             2
##  4 128.120.68.34               TRUE            13
##  5 128.138.177.19              TRUE            21
##  6 128.138.177.44              TRUE            28
##  7 128.138.177.6               TRUE            24
##  8 128.144.102.56              TRUE            26
##  9 128.150.157.33              TRUE            21
## 10 128.158.53.34               TRUE            19
## # ℹ 2,502 more rows
…
